New file created: 9/14/2020 12:26:24 PM
DESKTOP-IIHOBRR
****//\\*****
Message : timer1 stopped

-----------------------------------------------------------------------------

=====================================================================================================================
=====================================================================================================================
Message : timer1 started

-----------------------------------------------------------------------------

=====================================================================================================================
Message : timer1 stopped

-----------------------------------------------------------------------------

=====================================================================================================================
Message : timer1 started

-----------------------------------------------------------------------------

=====================================================================================================================
Message : timer1 stopped

-----------------------------------------------------------------------------

=====================================================================================================================
Message : timer1 started

-----------------------------------------------------------------------------

=====================================================================================================================
Message : timer1 stopped

-----------------------------------------------------------------------------

=====================================================================================================================
Message : timer1 started

-----------------------------------------------------------------------------

=====================================================================================================================
Message : timer1 stopped

-----------------------------------------------------------------------------

=====================================================================================================================
Message : timer1 started

-----------------------------------------------------------------------------

=====================================================================================================================
Message : timer1 stopped

-----------------------------------------------------------------------------

=====================================================================================================================
Message : timer1 started

-----------------------------------------------------------------------------

=====================================================================================================================
Message : timer1 stopped

-----------------------------------------------------------------------------

=====================================================================================================================
Message : timer1 started

-----------------------------------------------------------------------------

=====================================================================================================================
Message : timer1 stopped

-----------------------------------------------------------------------------

=====================================================================================================================
Message : timer1 started

-----------------------------------------------------------------------------

=====================================================================================================================
Message : timer1 stopped

-----------------------------------------------------------------------------

=====================================================================================================================
Message : timer1 started

-----------------------------------------------------------------------------

=====================================================================================================================
Message : timer1 stopped

-----------------------------------------------------------------------------

=====================================================================================================================
Message : timer1 started

-----------------------------------------------------------------------------

=====================================================================================================================
Message : timer1 stopped

-----------------------------------------------------------------------------

=====================================================================================================================
Message : timer1 started

-----------------------------------------------------------------------------

=====================================================================================================================
Message : timer1 stopped

-----------------------------------------------------------------------------

=====================================================================================================================
Message : timer1 started

-----------------------------------------------------------------------------

=====================================================================================================================
Message : timer1 stopped

-----------------------------------------------------------------------------

=====================================================================================================================
Message : timer1 started

-----------------------------------------------------------------------------

=====================================================================================================================
Message : timer1 stopped

-----------------------------------------------------------------------------

=====================================================================================================================
Message : timer1 started

-----------------------------------------------------------------------------

=====================================================================================================================
Message : timer1 stopped

-----------------------------------------------------------------------------

=====================================================================================================================
Message : timer1 started

-----------------------------------------------------------------------------

=====================================================================================================================
Message : timer1 stopped

-----------------------------------------------------------------------------

=====================================================================================================================
Message : timer1 started

-----------------------------------------------------------------------------

=====================================================================================================================
Message : timer1 stopped

-----------------------------------------------------------------------------

=====================================================================================================================
Message : timer1 started

-----------------------------------------------------------------------------

=====================================================================================================================
Message : timer1 stopped

-----------------------------------------------------------------------------

=====================================================================================================================
Message : timer1 started

-----------------------------------------------------------------------------

=====================================================================================================================
Message : timer1 stopped

-----------------------------------------------------------------------------

=====================================================================================================================
Message : timer1 started

-----------------------------------------------------------------------------

=====================================================================================================================
Message : timer1 stopped

-----------------------------------------------------------------------------

=====================================================================================================================
Message : timer1 started

-----------------------------------------------------------------------------

=====================================================================================================================
Message : timer1 stopped

-----------------------------------------------------------------------------

=====================================================================================================================
Message : timer1 started

-----------------------------------------------------------------------------

=====================================================================================================================
Message : timer1 stopped

-----------------------------------------------------------------------------

=====================================================================================================================
Message : timer1 started

-----------------------------------------------------------------------------

=====================================================================================================================
Message : timer1 stopped

-----------------------------------------------------------------------------

=====================================================================================================================
Message : timer1 started

-----------------------------------------------------------------------------

=====================================================================================================================
Message : timer1 stopped

-----------------------------------------------------------------------------

=====================================================================================================================
Message : timer1 started

-----------------------------------------------------------------------------

=====================================================================================================================
Message : timer1 stopped

-----------------------------------------------------------------------------

=====================================================================================================================
Message : timer1 started

-----------------------------------------------------------------------------

=====================================================================================================================
Message : timer1 stopped

-----------------------------------------------------------------------------

=====================================================================================================================
Message : timer1 started

-----------------------------------------------------------------------------

=====================================================================================================================
Message : timer1 stopped

-----------------------------------------------------------------------------

=====================================================================================================================
Message : timer1 started

-----------------------------------------------------------------------------

=====================================================================================================================
Message : timer1 stopped

-----------------------------------------------------------------------------

=====================================================================================================================
Message : timer1 started

-----------------------------------------------------------------------------

=====================================================================================================================
Message : timer1 stopped

-----------------------------------------------------------------------------

=====================================================================================================================
Message : timer1 started

-----------------------------------------------------------------------------

=====================================================================================================================
Message : timer1 stopped

-----------------------------------------------------------------------------

=====================================================================================================================
Message : timer1 started

-----------------------------------------------------------------------------

=====================================================================================================================
Message : timer1 stopped

-----------------------------------------------------------------------------

=====================================================================================================================
Message : timer1 started

-----------------------------------------------------------------------------

=====================================================================================================================
Message : timer1 stopped

-----------------------------------------------------------------------------

=====================================================================================================================
Message : timer1 started

-----------------------------------------------------------------------------

=====================================================================================================================
Message : timer1 stopped

-----------------------------------------------------------------------------

=====================================================================================================================
Message : timer1 started

-----------------------------------------------------------------------------

=====================================================================================================================
Message : timer1 stopped

-----------------------------------------------------------------------------

=====================================================================================================================
Message : timer1 started

-----------------------------------------------------------------------------

=====================================================================================================================
Message : timer1 stopped

-----------------------------------------------------------------------------

=====================================================================================================================
Message : timer1 started

-----------------------------------------------------------------------------

=====================================================================================================================
Message : timer1 stopped

-----------------------------------------------------------------------------

=====================================================================================================================
Message : timer1 started

-----------------------------------------------------------------------------

=====================================================================================================================
Message : timer1 stopped

-----------------------------------------------------------------------------

=====================================================================================================================
Message : timer1 started

-----------------------------------------------------------------------------

=====================================================================================================================
Message : timer1 stopped

-----------------------------------------------------------------------------

=====================================================================================================================
Message : timer1 started

-----------------------------------------------------------------------------

=====================================================================================================================
Message : timer1 stopped

-----------------------------------------------------------------------------

=====================================================================================================================
Message : timer1 started

-----------------------------------------------------------------------------

=====================================================================================================================
Message : timer1 stopped

-----------------------------------------------------------------------------

=====================================================================================================================
Message : timer1 started

-----------------------------------------------------------------------------

=====================================================================================================================
Message : timer1 stopped

-----------------------------------------------------------------------------

=====================================================================================================================
Message : timer1 started

-----------------------------------------------------------------------------

=====================================================================================================================
Message : timer1 stopped

-----------------------------------------------------------------------------

=====================================================================================================================
Message : timer1 started

-----------------------------------------------------------------------------

=====================================================================================================================
Message : timer1 stopped

-----------------------------------------------------------------------------

=====================================================================================================================
Message : timer1 started

-----------------------------------------------------------------------------

=====================================================================================================================
Message : timer1 stopped

-----------------------------------------------------------------------------

=====================================================================================================================
Message : timer1 started

-----------------------------------------------------------------------------

=====================================================================================================================
Message : timer1 stopped

-----------------------------------------------------------------------------

=====================================================================================================================
Message : timer1 started

-----------------------------------------------------------------------------

=====================================================================================================================
Message : timer1 stopped

-----------------------------------------------------------------------------

=====================================================================================================================
Message : timer1 started

-----------------------------------------------------------------------------

=====================================================================================================================
Message : timer1 stopped

-----------------------------------------------------------------------------

=====================================================================================================================
Message : timer1 started

-----------------------------------------------------------------------------

=====================================================================================================================
Message : timer1 stopped

-----------------------------------------------------------------------------

=====================================================================================================================
Message : timer1 started

-----------------------------------------------------------------------------

=====================================================================================================================
Message : timer1 stopped

-----------------------------------------------------------------------------

=====================================================================================================================
Message : timer1 started

-----------------------------------------------------------------------------

=====================================================================================================================
Message : timer1 stopped

-----------------------------------------------------------------------------

=====================================================================================================================
Message : timer1 started

-----------------------------------------------------------------------------

=====================================================================================================================
Message : timer1 stopped

-----------------------------------------------------------------------------

=====================================================================================================================
Message : timer1 started

-----------------------------------------------------------------------------

=====================================================================================================================
Message : timer1 stopped

-----------------------------------------------------------------------------

=====================================================================================================================
Message : timer1 started

-----------------------------------------------------------------------------

=====================================================================================================================
Message : timer1 stopped

-----------------------------------------------------------------------------

=====================================================================================================================
Message : timer1 started

-----------------------------------------------------------------------------

=====================================================================================================================
Message : timer1 stopped

-----------------------------------------------------------------------------

=====================================================================================================================
Message : timer1 started

-----------------------------------------------------------------------------

=====================================================================================================================
Message : timer1 stopped

-----------------------------------------------------------------------------

=====================================================================================================================
Message : timer1 started

-----------------------------------------------------------------------------

=====================================================================================================================
Message : timer1 stopped

-----------------------------------------------------------------------------

=====================================================================================================================
Message : timer1 started

-----------------------------------------------------------------------------

=====================================================================================================================
Message : timer1 stopped

-----------------------------------------------------------------------------

=====================================================================================================================
Message : timer1 started

-----------------------------------------------------------------------------

=====================================================================================================================
Message : timer1 stopped

-----------------------------------------------------------------------------

=====================================================================================================================
Message : timer1 started

-----------------------------------------------------------------------------

=====================================================================================================================
Message : timer1 stopped

-----------------------------------------------------------------------------

=====================================================================================================================
Message : timer1 started

-----------------------------------------------------------------------------

